D:\Study Material\sts-workspace\JMSProjectReceiver.zip_expanded\JMSProjectReceiver\src\main\java\com\consumer\controller\MessageRecieverApi.java
D:\Study Material\sts-workspace\JMSProjectReceiver.zip_expanded\JMSProjectReceiver\src\main\java\com\tranformxml\XSLTTranformation.java
D:\Study Material\sts-workspace\JMSProjectReceiver.zip_expanded\JMSProjectReceiver\src\main\java\com\send\jms\QueueSenderAfterHazelCast.java
D:\Study Material\sts-workspace\JMSProjectReceiver.zip_expanded\JMSProjectReceiver\src\main\java\com\tranformxml\MyErrorListener.java
D:\Study Material\sts-workspace\JMSProjectReceiver.zip_expanded\JMSProjectReceiver\src\main\java\com\java\HazelCast\HazelCastCheckValues.java
